---
http_interactions:
- request:
    method: get
    uri: https://www.flickr.com/services/rest/?api_key=b01b30581d73d49a5d47d2a24cda9334&extras=url_l,url_o&format=json&method=flickr.photos.search&nojsoncallback=1&per_page=1&sort=relevance&text=denver,co
    body:
      encoding: US-ASCII
      string: ''
    headers:
      User-Agent:
      - Faraday v1.0.1
      Accept-Encoding:
      - gzip;q=1.0,deflate;q=0.6,identity;q=0.3
      Accept:
      - "*/*"
  response:
    status:
      code: 200
      message: OK
    headers:
      Content-Type:
      - application/json
      Content-Length:
      - '463'
      Connection:
      - keep-alive
      Date:
      - Mon, 20 Apr 2020 23:56:43 GMT
      Server:
      - Apache/2.4.41 (Ubuntu)
      X-Content-Type-Options:
      - nosniff
      X-Frame-Options:
      - SAMEORIGIN
      X-Cache:
      - Miss from cloudfront
      Via:
      - 1.1 91f1c114eac2b00f07286bc49dddd7e5.cloudfront.net (CloudFront)
      X-Amz-Cf-Pop:
      - DEN50-C2
      X-Amz-Cf-Id:
      - 6R3cgp6NZbnNBa7HFeeC3qzCg72WdFljOVOe0fU0MTIHakuJbnElYg==
    body:
      encoding: UTF-8
      string: '{"photos":{"page":1,"pages":15123,"perpage":1,"total":"15123","photo":[{"id":"49000380512","owner":"97423979@N00","secret":"9632d315ef","server":"65535","farm":66,"title":"Geometric
        Shapes","ispublic":1,"isfriend":0,"isfamily":0,"url_l":"https:\/\/live.staticflickr.com\/65535\/49000380512_9632d315ef_b.jpg","height_l":636,"width_l":1024,"url_o":"https:\/\/live.staticflickr.com\/65535\/49000380512_af6764eaa7_o.jpg","height_o":1242,"width_o":2000}]},"stat":"ok"}'
    http_version: null
  recorded_at: Mon, 20 Apr 2020 23:56:43 GMT
recorded_with: VCR 5.1.0
