{
    "photos": {
        "page": 1,
        "pages": 8274,
        "perpage": 1,
        "total": "8274",
        "photo": [
            {
                "id": "17268897900",
                "owner": "21257148@N08",
                "secret": "e32be36b48",
                "server": "7778",
                "farm": 8,
                "title": "First Flatiron Northface",
                "ispublic": 1,
                "isfriend": 0,
                "isfamily": 0,
                "url_l": "https://live.staticflickr.com/7778/17268897900_e32be36b48_b.jpg",
                "height_l": 670,
                "width_l": 1024
            }
        ]
    },
    "stat": "ok"
}
